<?xml version="1.0" encoding="UTF-8" standalone="no"?>
<!-- Created with Inkscape (http://www.inkscape.org/) -->

<svg
   xmlns:osb="http://www.openswatchbook.org/uri/2009/osb"
   xmlns:dc="http://purl.org/dc/elements/1.1/"
   xmlns:cc="http://creativecommons.org/ns#"
   xmlns:rdf="http://www.w3.org/1999/02/22-rdf-syntax-ns#"
   xmlns:svg="http://www.w3.org/2000/svg"
   xmlns="http://www.w3.org/2000/svg"
   xmlns:xlink="http://www.w3.org/1999/xlink"
   xmlns:sodipodi="http://sodipodi.sourceforge.net/DTD/sodipodi-0.dtd"
   xmlns:inkscape="http://www.inkscape.org/namespaces/inkscape"
   width="30"
   height="30"
   id="svg2"
   version="1.1"
   inkscape:version="0.92.3 (2405546, 2018-03-11)"
   sodipodi:docname="import_settings.svg">
  <defs
     id="defs4">
    <linearGradient
       inkscape:collect="always"
       id="linearGradient2387">
      <stop
         style="stop-color:#000000;stop-opacity:1;"
         offset="0"
         id="stop2383" />
      <stop
         style="stop-color:#000000;stop-opacity:0;"
         offset="1"
         id="stop2385" />
    </linearGradient>
    <linearGradient
       id="linearGradient2363"
       osb:paint="solid">
      <stop
         style="stop-color:#000000;stop-opacity:1;"
         offset="0"
         id="stop2361" />
    </linearGradient>
    <marker
       inkscape:stockid="Arrow1Send"
       orient="auto"
       refY="0.0"
       refX="0.0"
       id="marker4498"
       style="overflow:visible;"
       inkscape:isstock="true">
      <path
         id="path4500"
         d="M 0.0,0.0 L 5.0,-5.0 L -12.5,0.0 L 5.0,5.0 L 0.0,0.0 z "
         style="fill-rule:evenodd;stroke:#000000;stroke-width:1pt;stroke-opacity:1;fill:#000000;fill-opacity:1"
         transform="scale(0.2) rotate(180) translate(6,0)" />
    </marker>
    <marker
       inkscape:stockid="Arrow1Send"
       orient="auto"
       refY="0.0"
       refX="0.0"
       id="Arrow1Send"
       style="overflow:visible;"
       inkscape:isstock="true">
      <path
         id="path4207"
         d="M 0.0,0.0 L 5.0,-5.0 L -12.5,0.0 L 5.0,5.0 L 0.0,0.0 z "
         style="fill-rule:evenodd;stroke:#000000;stroke-width:1pt;stroke-opacity:1;fill:#000000;fill-opacity:1"
         transform="scale(0.2) rotate(180) translate(6,0)" />
    </marker>
    <marker
       inkscape:stockid="Arrow2Mend"
       orient="auto"
       refY="0.0"
       refX="0.0"
       id="Arrow2Mend"
       style="overflow:visible;"
       inkscape:isstock="true">
      <path
         id="path4196"
         style="fill-rule:evenodd;stroke-width:0.625;stroke-linejoin:round;stroke:#000000;stroke-opacity:1;fill:#000000;fill-opacity:1"
         d="M 8.7185878,4.0337352 L -2.2072895,0.016013256 L 8.7185884,-4.0017078 C 6.9730900,-1.6296469 6.9831476,1.6157441 8.7185878,4.0337352 z "
         transform="scale(0.6) rotate(180) translate(0,0)" />
    </marker>
    <marker
       inkscape:stockid="Arrow1Lend"
       orient="auto"
       refY="0.0"
       refX="0.0"
       id="Arrow1Lend"
       style="overflow:visible;"
       inkscape:isstock="true">
      <path
         id="path4172"
         d="M 0.0,0.0 L 5.0,-5.0 L -12.5,0.0 L 5.0,5.0 L 0.0,0.0 z "
         style="fill-rule:evenodd;stroke:#00f000;stroke-width:1pt;stroke-opacity:1;fill:#00f000;fill-opacity:1"
         transform="scale(0.8) rotate(180) translate(12.5,0)" />
    </marker>
    <marker
       inkscape:stockid="Arrow2Mend"
       orient="auto"
       refY="0"
       refX="0"
       id="Arrow2Mend-0"
       style="overflow:visible"
       inkscape:isstock="true">
      <path
         inkscape:connector-curvature="0"
         id="path4196-6"
         style="fill:#000000;fill-opacity:1;fill-rule:evenodd;stroke:#000000;stroke-width:0.625;stroke-linejoin:round;stroke-opacity:1"
         d="M 8.7185878,4.0337352 -2.2072895,0.01601326 8.7185884,-4.0017078 c -1.7454984,2.3720609 -1.7354408,5.6174519 -6e-7,8.035443 z"
         transform="scale(-0.6,-0.6)" />
    </marker>
    <marker
       inkscape:stockid="Arrow2Mend"
       orient="auto"
       refY="0"
       refX="0"
       id="Arrow2Mend-0-0"
       style="overflow:visible"
       inkscape:isstock="true">
      <path
         inkscape:connector-curvature="0"
         id="path4196-6-7"
         style="fill:#000000;fill-opacity:1;fill-rule:evenodd;stroke:#000000;stroke-width:0.625;stroke-linejoin:round;stroke-opacity:1"
         d="M 8.7185878,4.0337352 -2.2072895,0.01601326 8.7185884,-4.0017078 c -1.7454984,2.3720609 -1.7354408,5.6174519 -6e-7,8.035443 z"
         transform="scale(-0.6,-0.6)" />
    </marker>
    <radialGradient
       inkscape:collect="always"
       xlink:href="#linearGradient2387"
       id="radialGradient2389"
       cx="15"
       cy="14.5"
       fx="15"
       fy="14.5"
       r="11.41335"
       gradientTransform="matrix(1,0,0,0.95619165,-30,-28.364779)"
       gradientUnits="userSpaceOnUse" />
  </defs>
  <sodipodi:namedview
     id="base"
     pagecolor="#ffffff"
     bordercolor="#666666"
     borderopacity="1.0"
     inkscape:pageopacity="0.0"
     inkscape:pageshadow="2"
     inkscape:zoom="11.313708"
     inkscape:cx="-30.478388"
     inkscape:cy="14.644797"
     inkscape:document-units="px"
     inkscape:current-layer="layer3"
     showgrid="true"
     inkscape:window-width="1920"
     inkscape:window-height="1018"
     inkscape:window-x="-8"
     inkscape:window-y="-8"
     inkscape:window-maximized="1"
     inkscape:snap-text-baseline="true"
     inkscape:snap-grids="true"
     inkscape:snap-to-guides="true"
     showguides="true">
    <inkscape:grid
       type="xygrid"
       id="grid4511" />
  </sodipodi:namedview>
  <metadata
     id="metadata7">
    <rdf:RDF>
      <cc:Work
         rdf:about="">
        <dc:format>image/svg+xml</dc:format>
        <dc:type
           rdf:resource="http://purl.org/dc/dcmitype/StillImage" />
        <dc:title></dc:title>
      </cc:Work>
    </rdf:RDF>
  </metadata>
  <g
     inkscape:groupmode="layer"
     id="layer3"
     inkscape:label="Courbes"
     style="display:inline">
    <path
       style="opacity:0;fill:#ff0000;fill-opacity:1;stroke:#000000;stroke-width:3;stroke-linecap:round;stroke-linejoin:round;stroke-miterlimit:4;stroke-dasharray:none;stroke-opacity:1"
       id="path4261"
       sodipodi:type="arc"
       sodipodi:cx="-28.5"
       sodipodi:cy="5"
       sodipodi:rx="12.5"
       sodipodi:ry="8"
       sodipodi:start="0"
       sodipodi:end="4.1707998"
       d="m -16,5 a 12.5,8 0 0 1 -10.255616,7.86999 12.5,8 0 0 1 -13.938423,-5.0438654 12.5,8 0 0 1 5.250309,-9.681249 L -28.5,5 Z" />
    <path
       style="opacity:0;fill:#ff0000;fill-opacity:1;stroke:#000000;stroke-width:3;stroke-linecap:round;stroke-linejoin:round;stroke-miterlimit:4;stroke-dasharray:none;stroke-opacity:1"
       id="path4195"
       sodipodi:type="arc"
       sodipodi:cx="-31.5"
       sodipodi:cy="2"
       sodipodi:rx="5.5"
       sodipodi:ry="3"
       sodipodi:start="0"
       sodipodi:end="4.1707959"
       d="m -26,2 a 5.5,3 0 0 1 -4.512464,2.9512455 5.5,3 0 0 1 -6.132908,-1.8914415 5.5,3 0 0 1 2.310112,-3.6304696 L -31.5,2 Z" />
    <path
       style="opacity:0;fill:#ff0000;fill-opacity:1;stroke:#000000;stroke-width:3;stroke-linecap:round;stroke-linejoin:round;stroke-miterlimit:4;stroke-dasharray:none;stroke-opacity:1"
       id="path4201"
       sodipodi:type="arc"
       sodipodi:cx="6.5"
       sodipodi:cy="14"
       sodipodi:rx="4.5"
       sodipodi:ry="3"
       sodipodi:start="0"
       sodipodi:end="4.1707959"
       d="M 11,14 A 4.5,3 0 0 1 7.307984,16.951245 4.5,3 0 0 1 2.2901503,15.059804 4.5,3 0 0 1 4.1802422,11.429334 L 6.5,14 Z" />
    <path
       style="opacity:0;fill:#ff0000;fill-opacity:1;stroke:#000000;stroke-width:3;stroke-linecap:round;stroke-linejoin:round;stroke-miterlimit:4;stroke-dasharray:none;stroke-opacity:1"
       id="path4203"
       sodipodi:type="arc"
       sodipodi:cx="-9"
       sodipodi:cy="10"
       sodipodi:rx="6"
       sodipodi:ry="4"
       sodipodi:start="0"
       sodipodi:end="4.0356743"
       d="m -3,10 a 6,4 0 0 1 -4.6580191,3.898666 6,4 0 0 1 -6.7416769,-2.154688 6,4 0 0 1 1.642286,-4.8625152"
       sodipodi:open="true" />
    <rect
       style="opacity:1;fill:#000000;fill-opacity:0.52195117;stroke:#000000;stroke-width:1.21516275;stroke-linecap:round;stroke-miterlimit:4.5999999;stroke-dasharray:none;stroke-opacity:1;paint-order:normal"
       id="rect2393"
       width="24"
       height="7"
       x="3"
       y="19"
       ry="3.5"
       rx="0" />
    <rect
       style="opacity:1;fill:#f5f9ab;fill-opacity:0.27317074;stroke:#e1e534;stroke-width:1.02699995;stroke-linecap:round;stroke-miterlimit:4.5999999;stroke-dasharray:none;stroke-opacity:0.95121951;paint-order:normal"
       id="rect2395"
       width="2"
       height="4"
       x="21"
       y="20"
       ry="1" />
    <path
       style="fill:none;stroke:#f03404;stroke-width:2.42212725;stroke-linecap:round;stroke-linejoin:round;stroke-miterlimit:4;stroke-dasharray:none;stroke-opacity:1;paint-order:normal"
       d="m 15,3 c 0,14 0,14 0,14 L 7.75,12.8 15,17 22.25,12.8 v 0"
       id="path2397"
       inkscape:connector-curvature="0" />
  </g>
</svg>
