<?xml version="1.0" encoding="UTF-8" standalone="no"?>
<!-- Created with Inkscape (http://www.inkscape.org/) -->

<svg
   xmlns:dc="http://purl.org/dc/elements/1.1/"
   xmlns:cc="http://creativecommons.org/ns#"
   xmlns:rdf="http://www.w3.org/1999/02/22-rdf-syntax-ns#"
   xmlns:svg="http://www.w3.org/2000/svg"
   xmlns="http://www.w3.org/2000/svg"
   xmlns:sodipodi="http://sodipodi.sourceforge.net/DTD/sodipodi-0.dtd"
   xmlns:inkscape="http://www.inkscape.org/namespaces/inkscape"
   width="30"
   height="30"
   viewBox="0 0 30 30"
   id="svg2"
   version="1.1"
   inkscape:version="0.92.2 (5c3e80d, 2017-08-06)"
   sodipodi:docname="radar_rain.svg">
  <defs
     id="defs4" />
  <sodipodi:namedview
     id="base"
     pagecolor="#ffffff"
     bordercolor="#666666"
     borderopacity="1.0"
     inkscape:pageopacity="0.0"
     inkscape:pageshadow="2"
     inkscape:zoom="1"
     inkscape:cx="3.2375283"
     inkscape:cy="10.479584"
     inkscape:document-units="px"
     inkscape:current-layer="layer1"
     showgrid="true"
     units="px"
     borderlayer="true"
     inkscape:window-width="1920"
     inkscape:window-height="1017"
     inkscape:window-x="-8"
     inkscape:window-y="-8"
     inkscape:window-maximized="1"
     inkscape:showpageshadow="false"
     inkscape:snap-bbox="false"
     inkscape:snap-global="true">
    <inkscape:grid
       type="xygrid"
       id="grid4137"
       dotted="true"
       spacingx="1"
       spacingy="1"
       empspacing="5" />
  </sodipodi:namedview>
  <metadata
     id="metadata7">
    <rdf:RDF>
      <cc:Work
         rdf:about="">
        <dc:format>image/svg+xml</dc:format>
        <dc:type
           rdf:resource="http://purl.org/dc/dcmitype/StillImage" />
        <dc:title />
      </cc:Work>
    </rdf:RDF>
  </metadata>
  <g
     inkscape:label="Calque 1"
     inkscape:groupmode="layer"
     id="layer1"
     transform="translate(0,-1022.3622)">
    <rect
       id="rect4508"
       width="3"
       height="3.0000432"
       x="7"
       y="1039.3622"
       style="fill:#d40000;stroke-width:1.50001097" />
    <rect
       id="rect4508-2"
       width="3"
       height="3.0000432"
       x="10"
       y="1036.3622"
       style="fill:#d40000;stroke-width:1.50001097" />
    <rect
       id="rect4508-7"
       width="3"
       height="3.0000432"
       x="7"
       y="1036.3622"
       style="fill:#d40000;stroke-width:1.50001097" />
    <rect
       id="rect4508-4"
       width="3"
       height="3.0000432"
       x="7"
       y="1042.3622"
       style="fill:#d40000;stroke-width:1.50001097" />
    <rect
       id="rect4508-1"
       width="3"
       height="3.0000432"
       x="10"
       y="1027.3622"
       style="fill:#ff6600;stroke-width:1.50001097" />
    <rect
       id="rect4508-3"
       width="3"
       height="3.0000432"
       x="4"
       y="1039.3622"
       style="fill:#d40000;stroke-width:1.50001097" />
    <rect
       id="rect4508-6"
       width="3"
       height="3.0000432"
       x="22"
       y="1033.3622"
       style="fill:#ffcc00;stroke-width:1.50001097" />
    <rect
       id="rect4508-6-8"
       width="3"
       height="3.0000432"
       x="4"
       y="1045.3622"
       style="fill:#ffcc00;stroke-width:1.50001097" />
    <rect
       id="rect4508-6-7"
       width="3"
       height="3.0000432"
       x="4"
       y="1030.3622"
       style="fill:#ffcc00;stroke-width:1.50001097" />
    <rect
       id="rect4508-6-5"
       width="3"
       height="3.0000432"
       x="4"
       y="1027.3622"
       style="fill:#ffcc00;stroke-width:1.50001097" />
    <rect
       id="rect4508-6-3"
       width="3"
       height="3.0000432"
       x="7"
       y="1024.3622"
       style="fill:#ffcc00;stroke-width:1.50001097" />
    <rect
       id="rect4508-6-9"
       width="3"
       height="3.0000432"
       x="7"
       y="1027.3622"
       style="fill:#ffcc00;stroke-width:1.50001097" />
    <rect
       id="rect4508-6-2"
       width="3"
       height="3.0000432"
       x="10"
       y="1024.3622"
       style="fill:#ffcc00;stroke-width:1.50001097" />
    <rect
       id="rect4508-1-6"
       width="3"
       height="3.0000432"
       x="4"
       y="1036.3622"
       style="fill:#ff6600;stroke-width:1.50001097" />
    <rect
       id="rect4508-1-0"
       width="3"
       height="3.0000432"
       x="19"
       y="1033.3622"
       style="fill:#ff6600;stroke-width:1.50001097" />
    <rect
       id="rect4508-1-3"
       width="3"
       height="3.0000432"
       x="10"
       y="1039.3622"
       style="fill:#ff6600;stroke-width:1.50001097" />
    <rect
       id="rect4508-1-7"
       width="3"
       height="3.0000432"
       x="10"
       y="1042.3622"
       style="fill:#ff6600;stroke-width:1.50001097" />
    <rect
       id="rect4508-1-9"
       width="3"
       height="3.0000432"
       x="10"
       y="1045.3622"
       style="fill:#ff6600;stroke-width:1.50001097" />
    <rect
       id="rect4508-1-65"
       width="3"
       height="3.0000432"
       x="1"
       y="1039.3622"
       style="fill:#ff6600;stroke-width:1.50001097" />
    <rect
       id="rect4508-1-02"
       width="3"
       height="3.0000432"
       x="1"
       y="1042.3622"
       style="fill:#ff6600;stroke-width:1.50001097" />
    <rect
       id="rect4508-6-7-4"
       width="3"
       height="3.0000432"
       x="1"
       y="1036.3622"
       style="fill:#ffcc00;stroke-width:1.50001097" />
    <rect
       id="rect4508-6-7-7"
       width="3"
       height="3.0000432"
       x="4"
       y="1033.3622"
       style="fill:#ffcc00;stroke-width:1.50001097" />
    <rect
       id="rect4508-6-7-5"
       width="3"
       height="3.0000432"
       x="1"
       y="1033.3622"
       style="fill:#ffcc00;stroke-width:1.50001097" />
    <rect
       id="rect4508-6-7-1"
       width="3"
       height="3.0000432"
       x="22"
       y="1027.3622"
       style="fill:#ffcc00;stroke-width:1.50001097" />
    <rect
       id="rect4508-6-7-8"
       width="3"
       height="3.0000432"
       x="25"
       y="1030.3622"
       style="fill:#ffcc00;stroke-width:1.50001097" />
    <rect
       id="rect4508-6-7-3"
       width="3"
       height="3.0000432"
       x="25"
       y="1024.3622"
       style="fill:#ffcc00;stroke-width:1.50001097" />
    <rect
       id="rect4508-6-7-2"
       width="3"
       height="3.0000432"
       x="16"
       y="1039.3622"
       style="fill:#ffcc00;stroke-width:1.50001097" />
    <rect
       id="rect4508-6-7-6"
       width="3"
       height="3.0000432"
       x="19"
       y="1036.3622"
       style="fill:#ffcc00;stroke-width:1.50001097" />
    <rect
       id="rect4508-6-7-0"
       width="3"
       height="3.0000432"
       x="13"
       y="1042.3622"
       style="fill:#ffcc00;stroke-width:1.50001097" />
    <rect
       id="rect4508-6-7-02"
       width="3"
       height="3.0000432"
       x="16"
       y="1042.3622"
       style="fill:#ffcc00;stroke-width:1.50001097" />
    <rect
       id="rect4508-2-6"
       width="3"
       height="3.0000432"
       x="10"
       y="1033.3622"
       style="fill:#d40000;stroke-width:1.50001097" />
    <rect
       id="rect4508-2-5"
       width="3"
       height="3.0000432"
       x="13"
       y="1033.3622"
       style="fill:#d40000;stroke-width:1.50001097" />
    <rect
       id="rect4508-2-0"
       width="3"
       height="3.0000432"
       x="13"
       y="1030.3622"
       style="fill:#d40000;stroke-width:1.50001097" />
    <rect
       id="rect4508-2-9"
       width="3"
       height="3.0000432"
       x="16"
       y="1030.3622"
       style="fill:#d40000;stroke-width:1.50001097" />
    <rect
       id="rect4508-2-04"
       width="3"
       height="3.0000432"
       x="16"
       y="1033.3622"
       style="fill:#d40000;stroke-width:1.50001097" />
    <rect
       id="rect4508-2-8"
       width="3"
       height="3.0000432"
       x="19"
       y="1027.3622"
       style="fill:#d40000;stroke-width:1.50001097" />
    <rect
       id="rect4508-1-0-3"
       width="3"
       height="3.0000432"
       x="4"
       y="1042.3622"
       style="fill:#ff6600;stroke-width:1.50001097" />
    <rect
       id="rect4508-1-0-9"
       width="3"
       height="3.0000432"
       x="7"
       y="1045.3622"
       style="fill:#ff6600;stroke-width:1.50001097" />
    <rect
       id="rect4508-1-0-32"
       width="3"
       height="3.0000432"
       x="7"
       y="1048.3622"
       style="fill:#ff6600;stroke-width:1.50001097" />
    <rect
       id="rect4508-1-0-1"
       width="3"
       height="3.0000432"
       x="13"
       y="1036.3622"
       style="fill:#ff6600;stroke-width:1.50001097" />
    <rect
       id="rect4508-1-0-0"
       width="3"
       height="3.0000432"
       x="13"
       y="1039.3622"
       style="fill:#ff6600;stroke-width:1.50001097" />
    <rect
       id="rect4508-1-0-7"
       width="3"
       height="3.0000432"
       x="10"
       y="1030.3622"
       style="fill:#ff6600;stroke-width:1.50001097" />
    <rect
       id="rect4508-1-0-12"
       width="3"
       height="3.0000432"
       x="7"
       y="1033.3622"
       style="fill:#ff6600;stroke-width:1.50001097" />
    <rect
       id="rect4508-1-0-77"
       width="3"
       height="3.0000432"
       x="13"
       y="1027.3622"
       style="fill:#ff6600;stroke-width:1.50001097" />
    <rect
       id="rect4508-1-0-07"
       width="3"
       height="3.0000432"
       x="16"
       y="1027.3622"
       style="fill:#ff6600;stroke-width:1.50001097" />
    <rect
       id="rect4508-1-0-6"
       width="3"
       height="3.0000432"
       x="19"
       y="1024.3622"
       style="fill:#ff6600;stroke-width:1.50001097" />
    <rect
       id="rect4508-1-0-8"
       width="3"
       height="3.0000432"
       x="22"
       y="1024.3622"
       style="fill:#ff6600;stroke-width:1.50001097" />
    <rect
       id="rect4508-1-0-18"
       width="3"
       height="3.0000432"
       x="19"
       y="1030.3622"
       style="fill:#ff6600;stroke-width:1.50001097" />
    <rect
       id="rect4508-1-0-67"
       width="3"
       height="3.0000432"
       x="22"
       y="1030.3622"
       style="fill:#ff6600;stroke-width:1.50001097" />
    <rect
       id="rect4508-1-0-4"
       width="3"
       height="3.0000432"
       x="16"
       y="1036.3622"
       style="fill:#ff6600;stroke-width:1.50001097" />
    <rect
       id="rect4508-6-7-6-3"
       width="3"
       height="3.0000432"
       x="13"
       y="1045.3622"
       style="fill:#ffe680;stroke-width:1.50001097" />
    <rect
       id="rect4508-6-7-6-3-7"
       width="3"
       height="3.0000432"
       x="16"
       y="1045.3622"
       style="fill:#ffe680;stroke-width:1.50001097" />
    <rect
       id="rect4508-6-7-6-3-5"
       width="3"
       height="3.0000432"
       x="19"
       y="1042.3622"
       style="fill:#ffe680;stroke-width:1.50001097" />
    <rect
       id="rect4508-6-7-6-3-2"
       width="3"
       height="3.0000432"
       x="19"
       y="1039.3622"
       style="fill:#ffe680;stroke-width:1.50001097" />
    <rect
       id="rect4508-6-7-6-3-1"
       width="3"
       height="3.0000432"
       x="22"
       y="1036.3622"
       style="fill:#ffe680;stroke-width:1.50001097" />
    <rect
       id="rect4508-6-7-6-3-0"
       width="3"
       height="3.0000432"
       x="22"
       y="1039.3622"
       style="fill:#ffe680;stroke-width:1.50001097" />
    <rect
       id="rect4508-6-7-6-3-76"
       width="3"
       height="3.0000432"
       x="25"
       y="1033.3622"
       style="fill:#ffe680;stroke-width:1.50001097" />
    <rect
       id="rect4508-6-7-6-3-53"
       width="3"
       height="3.0000432"
       x="25"
       y="1027.3622"
       style="fill:#ffe680;stroke-width:1.50001097" />
    <rect
       id="rect4508-6-7-6-3-01"
       width="3"
       height="3.0000432"
       x="16"
       y="1024.3622"
       style="fill:#ffe680;stroke-width:1.50001097" />
    <rect
       id="rect4508-6-7-6-3-6"
       width="3"
       height="3.0000432"
       x="13"
       y="1024.3622"
       style="fill:#ffe680;stroke-width:1.50001097" />
    <rect
       id="rect4508-6-7-6-3-8"
       width="3"
       height="3.0000432"
       x="7"
       y="1030.3622"
       style="fill:#ffe680;stroke-width:1.50001097" />
    <rect
       id="rect4508-6-7-6-3-84"
       width="3"
       height="3.0000432"
       x="1"
       y="1045.3622"
       style="fill:#ffe680;stroke-width:1.50001097" />
    <rect
       id="rect4508-6-7-6-3-3"
       width="3"
       height="3.0000432"
       x="1"
       y="1030.3622"
       style="fill:#ffe680;stroke-width:1.50001097" />
    <rect
       id="rect4508-6-7-6-3-29"
       width="3"
       height="3.0000432"
       x="1"
       y="1027.3622"
       style="fill:#ffe680;stroke-width:1.50001097" />
    <path
       style="fill:#0000ff;stroke:#000000;stroke-width:1px;stroke-linecap:round;stroke-linejoin:round;stroke-opacity:1;fill-opacity:1"
       d="m 10,1030.3622 v 12 l 12,-6 -12,-6"
       id="path878"
       inkscape:connector-curvature="0" />
  </g>
</svg>
