{
    "manhole":{
        "columns":{
            "z_ground":{
                "name":"Z",
                "type":"real",
                "default":"True"
            },
            "name":{
                "name":"Name",
                "type":"string",
                "default":"False"
            },
            "area":{
                "name":"Area",
                "type":"real",
                "default":"True"
            }
        },
        "advanced_columns":{

        },
        "geom":{
            "namecolumn":"geom",
            "typeimport":"MULTIPOINTZ",
            "type":"Zpoint"
        },
        "properties":{
            "type":"node"
        },
        "schema":"model"
    },
    "pipe":{
        "columns":{
            "comment":{
                "name":"Comment",
                "type":"string",
                "default":"True"
            },
            "name":{
                "name":"Name",
                "type":"string",
                "default":"False"
            },
            "circular_diameter":{
                "name":"Circular: diameter",
                "type":"real",
                "default":"True"
            },
            "ovoid_invert_diameter":{
                "name":"Ovoid: bottom diameter",
                "type":"real",
                "default":"True"
            },
            "custom_length":{
                "name":"Lenght",
                "type":"real",
                "default":"True"
            },
            "ovoid_height":{
                "name":"Ovoid: height",
                "type":"real",
                "default":"True"
            },
            "h_sable":{
                "name":"Silting height",
                "type":"real",
                "default":"True"
            },
            "z_invert_up":{
                "name":"Z invert up",
                "type":"real",
                "default":"True"
            },
            "cross_section_type":{
                "name":"Cross section type",
                "type":"hydra_cross_section_type",
                "default":"True"
            },
            "ovoid_top_diameter":{
                "name":"Ovoid: top diameter",
                "type":"real",
                "default":"True"
            },
            "z_invert_down":{
                "name":"Z invert down",
                "type":"real",
                "default":"True"
            },
            "rk":{
                "name":"Strickler",
                "type":"real",
                "default":"True"
            }
        },
        "advanced_columns":{
            "cp_geom":{
                "name":"Id cp geometry",
                "type":"integer",
                "default":"False"
            },
            "op_geom":{
                "name":"Id op geometry",
                "type":"integer",
                "default":"False"
            }
        },
        "geom":{
            "namecolumn":"geom",
            "typeimport":"MULTILINESTRINGZ",
            "type":"LineStringZ"
        },
        "properties":{
            "type":"link"
        },
        "schema":"model"
    },
    "street":{
        "columns":{
            "name":{
                "name":"Name",
                "type":"string",
                "default":"False"
            },
            "rk":{
                "name":"Strickler",
                "type":"real",
                "default":"True"
            },
            "width":{
                "name":"Width",
                "type":"real",
                "default":"True"
            },
            "elem_length":{
                "name":"Discretize length",
                "type":"real",
                "default":"True"
            }
        },
        "advanced_columns":{

        },
        "geom":{
            "namecolumn":"geom",
            "typeimport":"MULTILINESTRINGZ",
            "type":"LineStringZ"
        },
        "properties":{
            "type":""
        },
        "schema":"model"
    },
    "constrain":{
        "columns":{
            "name":{
                "name":"Name",
                "type":"string",
                "default":"False"
            },
            "elem_length":{
                "name":"Discretize length",
                "type":"real",
                "default":"True"
            },
            "constrain_type":{
                "name":"Constrain type",
                "type":"hydra_constrain_type",
                "default":"True"
            },
            "points_xyz":{
                "name":"Points xyz",
                "type":"integer",
                "default":"True"
            },
            "points_xyz_proximity":{
                "name":"Points proximity",
                "type":"integer",
                "default":"True"
            }
        },
        "advanced_columns":{

        },
        "geom":{
            "namecolumn":"geom",
            "typeimport":"MULTILINESTRINGZ",
            "type":"LineStringZ"
        },
        "properties":{
            "type":""
        },
        "schema":"model"
    },
    "reach":{
        "columns":{
            "name":{
                "name":"Name",
                "type":"string",
                "default":"False"
            },
            "pk0_km":{
                "name":"Pk0 (km)",
                "type":"real",
                "default":"True"
            },
            "dx":{
                "name":"dx",
                "type":"real",
                "default":"True"
            }
        },
        "advanced_columns":{

        },
        "geom":{
            "namecolumn":"geom",
            "typeimport":"MULTILINESTRINGZ",
            "type":"LineStringZ"
        },
        "properties":{
            "type":""
        },
        "schema":"model"
    },
    "catchment":{
        "columns":{
            "name":{
                "name":"Name",
                "type":"string",
                "default":"False"
            }
        },
        "advanced_columns":{

        },
        "geom":{
            "namecolumn":"geom",
            "typeimport":"MULTIPOLYGONZ",
            "type":"Polygon"
        },
        "properties":{
            "type":""
        },
        "schema":"model"
    },
    "catchment_node":{
        "columns":{
            "name":{
                "name":"Name",
                "type":"string",
                "default":"False"
            },
            "area_ha":{
                "name":"Area",
                "type":"real",
                "default":"True"
            },
            "slope":{
                "name":"Slope",
                "type":"real",
                "default":"True"
            },
            "rl":{
                "name":"Curvature",
                "type":"real",
                "default":"True"
            },
            "c_imp":{
                "name":"Impervious coef.",
                "type":"real",
                "default":"True"
            },
            "netflow_type":{
                "name":"Netflow type",
                "type":"hydra_netflow_type",
                "default":"True"
            },
            "constant_runoff":{
                "name":"Constant runoff",
                "type":"real",
                "default":"True"
            },
            "horner_ini_loss_coef":{
                "name":"Horner: initial loss coef.",
                "type":"real",
                "default":"True"
            },
            "horner_recharge_coef":{
                "name":"Horner: recharge coef.",
                "type":"real",
                "default":"True"
            },
            "holtan_sat_inf_rate_mmh":{
                "name":"Holtan: saturated infiltration rate (mm/h)",
                "type":"real",
                "default":"True"
            },
            "holtan_dry_inf_rate_mmh":{
                "name":"Holtan: dry infiltration rate (mm/h)",
                "type":"real",
                "default":"True"
            },
            "holtan_soil_storage_cap_mm":{
                "name":"Holtan: soil storage capacity (mm)",
                "type":"real",
                "default":"True"
            },
            "scs_j_mm":{
                "name":"SCS: J (mm)",
                "type":"real",
                "default":"True"
            },
            "scs_soil_drainage_time_day":{
                "name":"SCS: soil drainage time (days)",
                "type":"real",
                "default":"True"
            },
            "scs_rfu_mm":{
                "name":"SCS: rfu (mm)",
                "type":"real",
                "default":"True"
            },
            "hydra_surface_soil_storage_rfu_mm":{
                "name":"Hydra: surface soil storage RFU (mm)",
                "type":"real",
                "default":"True"
            },
            "hydra_inf_rate_f0_mm_hr":{
                "name":"Hydra: infiltration rate F0 (mm/h)",
                "type":"real",
                "default":"True"
            },
            "hydra_int_soil_storage_j_mm":{
                "name":"Hydra: soil storage J (mm)",
                "type":"real",
                "default":"True"
            },
            "hydra_soil_drainage_time_qres_day":{
                "name":"Hydra: soil drainage time Qres (days)",
                "type":"real",
                "default":"True"
            },
            "gr4_k1":{
                "name":"GR4: K1",
                "type":"real",
                "default":"True"
            },
            "gr4_k2":{
                "name":"GR4: K2",
                "type":"real",
                "default":"True"
            },
            "gr4_k3":{
                "name":"GR4: K3",
                "type":"real",
                "default":"True"
            },
            "gr4_k4":{
                "name":"GR4: K4",
                "type":"real",
                "default":"True"
            },
            "runoff_type":{
                "name":"Runoff type",
                "type":"hydra_runoff_type",
                "default":"True"
            },
            "socose_tc_mn":{
                "name":"Socose: TC (mn)",
                "type":"real",
                "default":"True"
            },
            "socose_shape_param_beta":{
                "name":"Socose: shape parameter Beta",
                "type":"real",
                "default":"True"
            },
            "define_k_mn":{
                "name":"Defined K (mn)",
                "type":"real",
                "default":"True"
            },
            "q_limit":{
                "name":"Q limit",
                "type":"real",
                "default":"True"
            },
            "q0":{
                "name":"Q0",
                "type":"real",
                "default":"True"
            },
            "rural_land_use":{
                "name":"Rural land use",
                "type":"real",
                "default":"True"
            },
            "industrial_land_use":{
                "name":"Industrial land use",
                "type":"real",
                "default":"True"
            },
            "suburban_housing_land_use":{
                "name":"Suburban housing land use",
                "type":"real",
                "default":"True"
            },
            "dense_housing_land_use":{
                "name":"Dense housing land use",
                "type":"real",
                "default":"True"
            }
        },
        "advanced_columns":{

        },
        "geom":{
            "namecolumn":"geom",
            "typeimport":"MULTIPOINTZ",
            "type":"Zpoint"
        },
        "properties":{
            "type":""
        },
        "schema":"model"
    },
    "hydrograph_bc_singularity":{
        "columns":{
            "name":{
                "name":"Name",
                "type":"string",
                "default":"False"
            },
            "storage_area":{
                "name":"Storage area",
                "type":"real",
                "default":"True"
            },
            "tq_array":{
                "name":"Q(t) array",
                "type":"array real",
                "default":"True"
            },
            "constant_dry_inflow":{
                "name":"Constant dry inflow",
                "type":"real",
                "default":"True"
            },
            "distrib_coef":{
                "name":"Distribution coefficient",
                "type":"real",
                "default":"True"
            },
            "lag_time_hr":{
                "name":"Lag time (H)",
                "type":"real",
                "default":"True"
            },
            "pollution_dryweather_runoff":{
                "name":"Pollution (dry weather/ runoff)",
                "type":"array real",
                "default":"True"
            },
            "quality_dryweather_runoff":{
                "name":"Quality (dry weather/ runoff)",
                "type":"array real",
                "default":"True"
            },
            "external_file_data":{
                "name":"External file data",
                "type":"bool",
                "default":"True"
            }
        },
        "advanced_columns":{

        },
        "geom":{
            "namecolumn":"geom",
            "typeimport":"MULTIPOINTZ",
            "type":"Zpoint"
        },
        "properties":{
            "type":""
        },
        "schema":"model"
    },
    "zq_split_hydrology_singularity":{
        "columns":{
            "name":{
                "name":"Name",
                "type":"string",
                "default":"False"
            },
            "downstream_type":{
                "name":"Downstream type",
                "type":"link_type",
                "default":"True"
            },
            "split1_type":{
                "name":"Split 1 type",
                "type":"link_type",
                "default":"True"
            },
            "split2_type":{
                "name":"Split 2 type",
                "type":"link_type",
                "default":"True"
            },
            "downstream_law":{
                "name":"Downstream Law",
                "type":"split_law_type",
                "default":"True"
            },
            "split1_law":{
                "name":"Split 1 law",
                "type":"split_law_type",
                "default":"True"
            },
            "split2_law":{
                "name":"Split 2 law",
                "type":"split_law_type",
                "default":"True"
            }
        },
        "advanced_columns":{
            "downstream_param":{
                "name":"Downstream Param",
                "type":"json",
                "default":"True"
            },
            "split1_param":{
                "name":"Split 1 param",
                "type":"json",
                "default":"True"
            },
            "split2_param":{
                "name":"Split 2 param",
                "type":"json",
                "default":"True"
            },
            "downstream":{
                "name":"Downstream",
                "type":"integer",
                "default":"False"
            },
            "split1":{
                "name":"Split 1",
                "type":"integer",
                "default":"True"
            },
            "split2":{
                "name":"Split 2",
                "type":"integer",
                "default":"True"
            }
        },
        "geom":{
            "namecolumn":"geom",
            "typeimport":"MULTIPOINTZ",
            "type":"Zpoint"
        },
        "properties":{
            "type":""
        },
        "schema":"model"
    },
    "qq_split_hydrology_singularity":{
        "columns":{
            "name":{
                "name":"Name",
                "type":"string",
                "default":"False"
            },
            "qq_array":{
                "name":"Q(q) array",
                "type":"array_real",
                "default":"False"
            },
            "downstream_type":{
                "name":"Downstream type",
                "type":"link_type",
                "default":"True"
            },
            "split1_type":{
                "name":"Split 1 type",
                "type":"link_type",
                "default":"True"
            },
            "split2_type":{
                "name":"Split 2 type",
                "type":"link_type",
                "default":"True"
            }
        },
        "advanced_columns":{
            "split2":{
                "name":"Split 2",
                "type":"integer",
                "default":"True"
            },
            "split1":{
                "name":"Split 1",
                "type":"integer",
                "default":"True"
            },
            "downstream":{
                "name":"Downstream",
                "type":"integer",
                "default":"True"
            }
        },
        "geom":{
            "namecolumn":"geom",
            "typeimport":"MULTIPOINTZ",
            "type":"Zpoint"
        },
        "properties":{
            "type":""
        },
        "schema":"model"
    },
    "reservoir_rs_hydrology_singularity":{
        "columns":{
            "name":{
                "name":"Name",
                "type":"string",
                "default":"False"
            },
            "drainage_type":{
                "name":"Drainage type",
                "type":"link_type",
                "default":"True"
            },
            "overflow_type":{
                "name":"Overflow type",
                "type":"link_type",
                "default":"True"
            },
            "q_drainage":{
                "name":"Q drainage",
                "type":"float",
                "default":"True"
            },
            "z_ini":{
                "name":"Z ini",
                "type":"float",
                "default":"True"
            },
            "zs_array":{
                "name":"S(z) array",
                "type":"array_real",
                "default":"True"
            },
            "treatment_mode":{
                "name":"Treatment mode",
                "type":"pollution_treatment_mode",
                "default":"True"
            }
        },
        "advanced_columns":{
            "overflow":{
                "name":"Overflow",
                "type":"integer",
                "default":"True"
            },
            "drainage":{
                "name":"Drainage",
                "type":"integer",
                "default":"True"
            },
            "treatment_param":{
                "name":"Treatment param",
                "type":"json",
                "default":"True"
            }
        },
        "geom":{
            "namecolumn":"geom",
            "typeimport":"MULTIPOINTZ",
            "type":"Zpoint"
        },
        "properties":{
            "type":""
        },
        "schema":"model"
    },
    "reservoir_rsp_hydrology_singularity":{
        "columns":{
            "name":{
                "name":"Name",
                "type":"string",
                "default":"False"
            },
            "drainage_type":{
                "name":"Drainage type",
                "type":"link_type",
                "default":"True"
            },
            "overflow_type":{
                "name":"Overflow type",
                "type":"link_type",
                "default":"True"
            },
            "z_ini":{
                "name":"Z ini",
                "type":"float",
                "default":"True"
            },
            "zr_sr_qf_qs_array":{
                "name":"Elevation (m) / Surface (m2) / Drainage flow rate (m3/s) / Overflow flow rate (m3/s)",
                "type":"array_real",
                "default":"True"
            },
            "treatment_mode":{
                "name":"Treatment mode",
                "type":"pollution_treatment_mode",
                "default":"True"
            }
        },
        "advanced_columns":{
            "drainage":{
                "name":"Drainage",
                "type":"integer",
                "default":"True"
            },
            "overflow":{
                "name":"Overflow",
                "type":"integer",
                "default":"True"
            },
            "treatment_param":{
                "name":"Treatment param",
                "type":"json",
                "default":"True"
            }
        },
        "geom":{
            "namecolumn":"geom",
            "typeimport":"MULTIPOINTZ",
            "type":"Zpoint"
        },
        "properties":{
            "type":""
        },
        "schema":"model"
    },
    "constant_inflow_bc_singularity":{
        "columns":{
            "name":{
                "name":"Name",
                "type":"string",
                "default":"False"
            },
            "q0":{
                "name":"Q0",
                "type":"real",
                "default":"True"
            }
        },
        "advanced_columns":{

        },
        "geom":{
            "namecolumn":"geom",
            "typeimport":"MULTIPOINTZ",
            "type":"Zpoint"
        },
        "properties":{
            "type":""
        },
        "schema":"model"
    },
    "points_xyz":{
        "columns":{
            "comment":{
                "name":"Comment",
                "type":"string",
                "default":"True"
            },
            "source":{
                "name":"Source",
                "type":"string",
                "default":"True"
            },
            "z_ground":{
                "name":"Z",
                "type":"real",
                "default":"True"
            },
            "name":{
                "name":"Name",
                "type":"string",
                "default":"False"
            },
            "points_type":{
                "name":"Points Type",
                "type":"string",
                "default":"False"
            }
        },
        "advanced_columns":{

        },
        "geom":{
            "namecolumn":"geom",
            "typeimport":"MULTIPOINTZ",
            "type":"Zpoint"
        },
        "properties":{
            "type":""
        },
        "schema":"project"
    },
    "land_occupation":{
        "columns":{
            "land_type":{
                "name":"Land type",
                "type":"string|real",
                "default":"False"
            },
            "c_imp":{
                "name":"Impervious coef",
                "type":"real",
                "default":"False"
            }
        },
        "advanced_columns":{

        },
        "geom":{
            "namecolumn":"geom",
            "typeimport":"MULTIPOLYGONZ",
            "type":"Polygone"
        },
        "properties":{
            "type":""
        },
        "schema":"project"
    },
    "station":{
        "columns":{
            "name":{
                "name":"Name",
                "type":"string",
                "default":"False"
            }
        },
        "advanced_columns":{

        },
        "geom":{
            "namecolumn":"geom",
            "typeimport":"MULTIPOLYGONZ",
            "type":"Polygone"
        },
        "properties":{
            "type":""
        },
        "schema":"model"
    },
    "station_node":{
        "columns":{
            "name":{
                "name":"Name",
                "type":"string",
                "default":"False"
            },
            "area":{
                "name":"Area",
                "type":"real",
                "default":"True"
            },
            "z_invert":{
                "name":"Z invert",
                "type":"real",
                "default":"True"
            }
        },
        "advanced_columns":{

        },
        "geom":{
            "namecolumn":"geom",
            "typeimport":"MULTIPOINTZ",
            "type":"Zpoint"
        },
        "properties":{
            "type":""
        },
        "schema":"model"
    },
    "coverage_marker":{
        "columns":{
            "name":{
                "name":"Name",
                "type":"string",
                "default":"False"
            },
            "comment":{
                "name":"Comment",
                "type":"string",
                "default":"False"
            }
        },
        "advanced_columns":{

        },
        "geom":{
            "namecolumn":"geom",
            "typeimport":"MULTIPOINTZ|MULTIPOLYGONZ",
            "type":"Zpoint"
        },
        "properties":{
            "type":""
        },
        "schema":"model"
    },
    "manhole_hydrology":{
        "columns":{
            "z_ground":{
                "name":"Z",
                "type":"real",
                "default":"True"
            },
            "name":{
                "name":"Name",
                "type":"string",
                "default":"False"
            },
            "area":{
                "name":"Area",
                "type":"real",
                "default":"True"
            }
        },
        "advanced_columns":{

        },
        "geom":{
            "namecolumn":"geom",
            "typeimport":"MULTIPOINTZ",
            "type":"Zpoint"
        },
        "properties":{
            "type":"node"
        },
        "schema":"model"
    },
    "connector":{
        "columns":{
            "name":{
                "name":"Name",
                "type":"string",
                "default":"False"
            }
        },
        "advanced_columns":{

        },
        "geom":{
            "namecolumn":"geom",
            "typeimport":"MULTILINESTRINGZ",
            "type":"LineStringZ"
        },
        "properties":{
            "type":"link"
        },
        "schema":"model"
    },
    "connector_hydrology":{
        "columns":{
            "name":{
                "name":"Name",
                "type":"string",
                "default":"False"
            }
        },
        "advanced_columns":{

        },
        "geom":{
            "namecolumn":"geom",
            "typeimport":"MULTILINESTRINGZ",
            "type":"LineStringZ"
        },
        "properties":{
            "type":"link"
        },
        "schema":"model"
    },
    "routing_hydrology":{
        "columns":{
            "name":{
                "name":"Name",
                "type":"string",
                "default":"False"
            },
            "length":{
                "name":"Length",
                "type":"real",
                "default":"True"
            },
            "cross_section":{
                "name":"Cross section",
                "type":"real",
                "default":"True"
            },
            "slope":{
                "name":"Slope",
                "type":"real",
                "default":"True"
            }
        },
        "advanced_columns":{

        },
        "geom":{
            "namecolumn":"geom",
            "typeimport":"MULTILINESTRINGZ",
            "type":"LineStringZ"
        },
        "properties":{
            "type":"link"
        },
        "schema":"model"
    }
}
