{
"MOS Ile-de-France": {
    "bois_ou_forets": {
        "land_type": "woods_and_forests",
        "c_imp": 0.05,
        "color" : "#bbccc3"
        },
    "milieux_semi-naturels": {
        "land_type": "semi_natural_spaces",
        "c_imp": 0.1,
        "color" : "#b8a249"
        },
    "espaces_agricoles": {
        "land_type": "cultivated_fields",
        "c_imp": 0.05,
        "color" : "#f1f4c7"
        },
    "eau": {
        "land_type": "water",
        "c_imp": 0,
        "color" : "#8bcfee"
        },
    "espaces_ouverts_artificialises": {
        "land_type": "open_artificial_spaces",
        "c_imp": 0.2,
        "color" : "#82bf9e"
        },
    "habitat_individuel": {
        "land_type": "individual_housing",
        "c_imp": 0.4,
        "color" : "#e5b49d"
        },
    "habitat_collectif": {
        "land_type": "collective_housing",
        "c_imp": 0.45,
        "color" : "#e06e88"
        },
    "activites": {
        "land_type": "activities",
        "c_imp": 0.45,
        "color" : "#d29ada"
        },
    "equipements": {
        "land_type": "equipments",
        "c_imp": 0.4,
        "color" : "#27978f"
        },
    "transports": {
        "land_type": "transports",
        "c_imp": 0.9,
        "color" : "#ededed"
        },
    "carrieres_decharges_chantiers": {
        "land_type": "pits_landfills_construction_sites",
        "c_imp": 0.2,
        "color" : "#587b64"
        }
    },
"Corine land cover": {
    "territoires_artificialises":{
        "land_type": "artificial_spaces",
        "c_imp": 0.5,
        "color" : "orange"
        },
    "territoires_agricoles":{
        "land_type": "cultivated_fields",
        "c_imp": 0.05,
        "color" : "light green"
        },
    "forets_et_milieux_semi-naturels":{
        "land_type": "forests_and_semi_natural_spaces",
        "c_imp": 0.1,
        "color" : "green"
        },
    "zones_humides":{
        "land_type": "wet_lands",
        "c_imp": 0.01,
        "color" : "dark blue"
        },
    "espaces_en_eau":{
        "land_type": "water",
        "c_imp": 0,
        "color" : "blue"
        }
    }
}